{
    "data": [
      {
        "id": "6721cbf9498421611c0cc282",
        "created": "2024-10-30T06:02:33.224Z",
        "name": "spark",
        "url": "https://aspark.cc",
        "avatar": "https://www.aspark.cc/img/avatar.webp",
        "description": "",
        "type": 0,
        "state": 0,
        "hide": false
      },
      {
        "id": "671c77d8498421611c0ca26a",
        "created": "2024-10-26T05:02:16.465Z",
        "name": "時光",
        "url": "https://blog.shiguangdev.cn",
        "avatar": "https://blog.shiguangdev.cn/img/avatar.png",
        "description": "心寄朗朗乾坤，胸怀真修之道.",
        "type": 0,
        "state": 0,
        "hide": false
      },
      {
        "id": "6707bfe20b2641472b19ac14",
        "created": "2024-10-10T11:52:02.472Z",
        "name": "梦爱吃鱼",
        "url": "https://blog.bsgun.cn",
        "avatar": "https://oss-cdn.bsgun.cn/logo/avatar.256.png",
        "description": "但愿日子清静抬头遇见的满是柔情",
        "type": 0,
        "state": 0,
        "hide": false
      },
      {
        "id": "66fa76c4569c687b9270a019",
        "created": "2024-09-30T10:00:36.954Z",
        "name": "一粒微尘",
        "url": "https://blog.667408.xyz",
        "avatar": "https://blog.667408.xyz/favicon.ico",
        "description": "迎着光看，每一粒微尘都似点点繁星",
        "type": 0,
        "state": 0,
        "hide": false
      },
      {
        "id": "66fa7686569c687b9270a015",
        "created": "2024-09-30T09:59:34.197Z",
        "name": "青稚の空间",
        "url": "https://blog.linux-qitong.top",
        "avatar": "https://blog.linux-qitong.top/img/avatar.jpg",
        "description": "越努力，越幸运",
        "type": 0,
        "state": 0,
        "hide": false
      },
      {
        "id": "66eb99b0ff3d9dd68e8a6a94",
        "created": "2024-09-19T03:25:36.771Z",
        "name": "第二站点（kami）",
        "url": "https://blog-bk.xiaohan-kaka.me/",
        "avatar": "https://f003.backblazeb2.com/file/blog-v3/120887894_p1.jpg",
        "description": "第二站点",
        "type": 1,
        "state": 0,
        "hide": false
      },
      {
        "id": "66eaee96ff3d9dd68e8a6074",
        "created": "2024-09-18T15:15:34.881Z",
        "name": "xlog分站",
        "url": "https://xlog.xiaohan-kaka.me/",
        "avatar": "https://f003.backblazeb2.com/file/blog-v3/120887894_p1.jpg",
        "description": "晓寒の博客xlog分站",
        "type": 1,
        "state": 0,
        "hide": false
      },
      {
        "id": "66bda9177a5c458c9c1fb247",
        "name": "浅草物语",
        "url": "https://www.chillg.top",
        "avatar": "https://pic.imgdb.cn/item/65192187c458853aef9f07c7.png",
        "description": "繁杂互联网中的避风港,清静的一亩三分地。",
        "type": 0,
        "state": 0,
        "created": "2024-08-15T07:07:03.046Z",
        "hide": false
      },
      {
        "id": "66bb31df7a5c458c9c1fa8b7",
        "name": "FloatSheep's Blog",
        "url": "https://blog.hesiy.cn",
        "avatar": "https://registry.npmmirror.com/@floatsheep/fsl-fim/1.0.23/files/avatar%202024.black.webp",
        "description": "On the other side of obstacles",
        "type": 0,
        "state": 0,
        "created": "2024-08-13T10:13:51.358Z",
        "hide": false
      },
      {
        "id": "66bb2ea47a5c458c9c1fa7d0",
        "name": "HiPeach",
        "url": "https://blog.opeach.cn",
        "avatar": "https://npm.elemecdn.com/opicture@1.0.0/main/avatar.webp",
        "description": "妙不可言",
        "type": 0,
        "state": 0,
        "created": "2024-08-13T10:00:04.041Z",
        "hide": false
      }
    ],
    "pagination": {
      "total": 17,
      "current_page": 1,
      "total_page": 2,
      "size": 10,
      "has_next_page": true,
      "has_prev_page": false
    }
  }